02062018 10:46:39 AM->URL:/HRISDEV/hris/min/e2e/resources/views/pages/GlobalCaller.e2e.php?hSess=MTUxNzg4NTE5ODIwMTgwMjA2XzE1MTc4ODUxOTgyMDE4MDIwNl9heg==&hUser=aalozada&hUserRefId=25&hCompanyID=2&hBranchID=1&hsysgrp=&hucode=COMPEMP&hUserGroup=COMPEMP&ccode=PCC&hEmpRefId=25&h=Secret&loginT=2018-02-06%2010:46:38%20AM&file=scrnWelcome&auth=init
02062018 10:46:49 AM->URL:/HRISDEV/hris/min/e2e/resources/views/pages/GlobalCaller.e2e.php?hSess=MTUxNzg4NTE5ODIwMTgwMjA2XzE1MTc4ODUxOTgyMDE4MDIwNl9heg==&hUser=aalozada&hUserRefId=25&hCompanyID=2&hBranchID=1&hsysgrp=&hucode=COMPEMP&hUserGroup=COMPEMP&ccode=PCC&hEmpRefId=25&h=Secret&loginT=2018-02-06%2010:46:38%20AM&file=scrn201File&paramTitle=201%20File&hTable=Employees&auth=07810a7b931dfb06424d4d47e967d5769e18c059
02062018 10:47:19 AM->URL:/HRISDEV/hris/min/e2e/resources/views/pages/GlobalCaller.e2e.php?hSess=MTUxNzg4NTE5ODIwMTgwMjA2XzE1MTc4ODUxOTgyMDE4MDIwNl9heg==&hUser=aalozada&hUserRefId=25&hCompanyID=2&hBranchID=1&hsysgrp=&hucode=COMPEMP&hUserGroup=COMPEMP&ccode=PCC&hEmpRefId=25&h=Secret&loginT=2018-02-06%2010:46:38%20AM&file=scrn201Update&paramTitle=201%20UPDATES&hTable=&hGridTblHdr=&hGridTblFld=&auth=8a79ea17fd58e6bd0451dd5fb0ba6b927af8f097
02062018 10:47:20 AM->URL:/HRISDEV/hris/min/e2e/resources/views/pages/GlobalCaller.e2e.php?hSess=MTUxNzg4NTE5ODIwMTgwMjA2XzE1MTc4ODUxOTgyMDE4MDIwNl9heg==&hUser=aalozada&hUserRefId=25&hCompanyID=2&hBranchID=1&hsysgrp=&hucode=COMPEMP&hUserGroup=COMPEMP&ccode=PCC&hEmpRefId=25&h=Secret&loginT=2018-02-06%2010:46:38%20AM&file=scrn201File&paramTitle=201%20File&hTable=employees&hGridTblHdr=Last%20Name|First%20Name|Contact%20No|Birth%20Date|Civil%20Status&hGridTblFld=LastName|FirstName|ContactNo|BirthDate|CivilStatus&auth=aa7880a6ebdf9e9ab3d3c68ee3495255c35790c5
02062018 10:47:22 AM->URL:/HRISDEV/hris/min/e2e/resources/views/pages/GlobalCaller.e2e.php?hSess=MTUxNzg4NTE5ODIwMTgwMjA2XzE1MTc4ODUxOTgyMDE4MDIwNl9heg==&hUser=aalozada&hUserRefId=25&hCompanyID=2&hBranchID=1&hsysgrp=&hucode=COMPEMP&hUserGroup=COMPEMP&ccode=PCC&hEmpRefId=25&h=Secret&loginT=2018-02-06%2010:46:38%20AM&file=scrn201File&paramTitle=201%20File&hTable=employees&hGridTblHdr=Last%20Name|First%20Name|Contact%20No|Birth%20Date|Civil%20Status&hGridTblFld=LastName|FirstName|ContactNo|BirthDate|CivilStatus&paramTitle=201%20File&hTable=employees&hGridTblHdr=Last%20Name|First%20Name|Contact%20No|Birth%20Date|Civil%20Status&hGridTblFld=LastName|FirstName|ContactNo|BirthDate|CivilStatus&auth=11f2cfef42969af5c8cec176e4b2d3263b02c65a
02062018 10:47:26 AM->URL:/HRISDEV/hris/min/e2e/resources/views/pages/GlobalCaller.e2e.php?hSess=MTUxNzg4NTE5ODIwMTgwMjA2XzE1MTc4ODUxOTgyMDE4MDIwNl9heg==&hUser=aalozada&hUserRefId=25&hCompanyID=2&hBranchID=1&hsysgrp=&hucode=COMPEMP&hUserGroup=COMPEMP&ccode=PCC&hEmpRefId=25&h=Secret&loginT=2018-02-06%2010:46:38%20AM&file=scrn201File&paramTitle=201%20File&hTable=employees&hGridTblHdr=Last%20Name|First%20Name|Contact%20No|Birth%20Date|Civil%20Status&hGridTblFld=LastName|FirstName|ContactNo|BirthDate|CivilStatus&paramTitle=201%20File&hTable=employees&hGridTblHdr=Last%20Name|First%20Name|Contact%20No|Birth%20Date|Civil%20Status&hGridTblFld=LastName|FirstName|ContactNo|BirthDate|CivilStatus&paramTitle=201%20File&hTable=employees&hGridTblHdr=Last%20Name|First%20Name|Contact%20No|Birth%20Date|Civil%20Status&hGridTblFld=LastName|FirstName|ContactNo|BirthDate|CivilStatus&auth=6065e299eb5b78f21110c0307cc94756a17a2f4d
02062018 10:47:33 AM->URL:/HRISDEV/hris/min/e2e/resources/views/pages/GlobalCaller.e2e.php?hSess=MTUxNzg4NTE5ODIwMTgwMjA2XzE1MTc4ODUxOTgyMDE4MDIwNl9heg==&hUser=aalozada&hUserRefId=25&hCompanyID=2&hBranchID=1&hsysgrp=&hucode=COMPEMP&hUserGroup=COMPEMP&ccode=PCC&hEmpRefId=25&h=Secret&loginT=2018-02-06%2010:46:38%20AM&file=scrn201File&paramTitle=201%20File&hTable=employees&hGridTblHdr=Last%20Name|First%20Name|Contact%20No|Birth%20Date|Civil%20Status&hGridTblFld=LastName|FirstName|ContactNo|BirthDate|CivilStatus&paramTitle=201%20File&hTable=employees&hGridTblHdr=Last%20Name|First%20Name|Contact%20No|Birth%20Date|Civil%20Status&hGridTblFld=LastName|FirstName|ContactNo|BirthDate|CivilStatus&paramTitle=201%20File&hTable=employees&hGridTblHdr=Last%20Name|First%20Name|Contact%20No|Birth%20Date|Civil%20Status&hGridTblFld=LastName|FirstName|ContactNo|BirthDate|CivilStatus&paramTitle=201%20File&hTable=employees&hGridTblHdr=Last%20Name|First%20Name|Contact%20No|Birth%20Date|Civil%20Status&hGridTblFld=LastName|FirstName|ContactNo|BirthDate|CivilStatus&auth=5d3dac3ca2037a61185b0bb02d96d0159bd22308
