03232018 05:03:04 AM->URL:/HRISDEV/hris/min/e2e/resources/views/pages/GlobalCaller.e2e.php?hSess=MTUyMTc1MjU4MzIwMTgwMzIzXzE1MjE3NTI1ODMyMDE4MDMyM19heg==&hUser=admin&hUserRefId=46&hCompanyID=2&hBranchID=1&hsysgrp=2&hucode=&hUserGroup=&ccode=PCC&hEmpRefId=0&h=Secret&loginT=2018-03-23%2005:03:03%20AM&file=scrnWelcome&auth=init
03232018 05:05:36 AM->URL:/HRISDEV/hris/min/e2e/resources/views/pages/GlobalCaller.e2e.php?hSess=MTUyMTc1MjU4MzIwMTgwMzIzXzE1MjE3NTI1ODMyMDE4MDMyM19heg==&hUser=admin&hUserRefId=46&hCompanyID=2&hBranchID=1&hsysgrp=2&hucode=&hUserGroup=&ccode=PCC&hEmpRefId=0&h=Secret&loginT=2018-03-23%2005:03:03%20AM&file=scrnWelcome&auth=init
03232018 05:07:49 AM->URL:/HRISDEV/hris/min/e2e/resources/views/pages/GlobalCaller.e2e.php?hSess=MTUyMTc1MjU4MzIwMTgwMzIzXzE1MjE3NTI1ODMyMDE4MDMyM19heg==&hUser=admin&hUserRefId=46&hCompanyID=2&hBranchID=1&hsysgrp=2&hucode=&hUserGroup=&ccode=PCC&hEmpRefId=0&h=Secret&loginT=2018-03-23%2005:03:03%20AM&file=scrnWelcome&auth=init
03232018 05:07:52 AM->URL:/HRISDEV/hris/min/e2e/resources/views/pages/GlobalCaller.e2e.php?hSess=MTUyMTc1MjU4MzIwMTgwMzIzXzE1MjE3NTI1ODMyMDE4MDMyM19heg==&hUser=admin&hUserRefId=46&hCompanyID=2&hBranchID=1&hsysgrp=2&hucode=&hUserGroup=&ccode=PCC&hEmpRefId=0&h=Secret&loginT=2018-03-23%2005:03:03%20AM&file=admUserAccessSystem&id=admUserAccessSys&auth=41e9d2908d5a60f06242c546cdbfc56949c0da3c
03232018 05:07:58 AM->URL:/HRISDEV/hris/min/e2e/resources/views/pages/GlobalCaller.e2e.php?hSess=MTUyMTc1MjU4MzIwMTgwMzIzXzE1MjE3NTI1ODMyMDE4MDMyM19heg==&hUser=admin&hUserRefId=46&hCompanyID=2&hBranchID=1&hsysgrp=2&hucode=&hUserGroup=&ccode=PCC&hEmpRefId=0&h=Secret&loginT=2018-03-23%2005:03:03%20AM&file=scrnLogOut&id=scrnLogOut&auth=9b4e9cc4a791215bdf556b6e3b336ab71f2b8641
03232018 05:08:10 AM->URL:/HRISDEV/hris/min/e2e/resources/views/pages/GlobalCaller.e2e.php?hSess=MTUyMTc1Mjg5MDIwMTgwMzIzXzE1MjE3NTI4OTAyMDE4MDMyM19heg==&hUser=admin&hUserRefId=46&hCompanyID=2&hBranchID=1&hsysgrp=1&hucode=&hUserGroup=&ccode=PCC&hEmpRefId=0&h=Secret&loginT=2018-03-23%2005:08:10%20AM&file=scrnWelcome&auth=init
03232018 05:08:20 AM->URL:/HRISDEV/hris/min/e2e/resources/views/pages/GlobalCaller.e2e.php?hSess=MTUyMTc1Mjg5MDIwMTgwMzIzXzE1MjE3NTI4OTAyMDE4MDMyM19heg==&hUser=admin&hUserRefId=46&hCompanyID=2&hBranchID=1&hsysgrp=1&hucode=&hUserGroup=&ccode=PCC&hEmpRefId=0&h=Secret&loginT=2018-03-23%2005:08:10%20AM&file=scrnWelcome&paramTitle=&auth=98d7691e043e989753237f9f0b8ae04776f1c1a6
03232018 05:08:24 AM->URL:/HRISDEV/hris/min/e2e/resources/views/pages/GlobalCaller.e2e.php?hSess=MTUyMTc1Mjg5MDIwMTgwMzIzXzE1MjE3NTI4OTAyMDE4MDMyM19heg==&hUser=admin&hUserRefId=46&hCompanyID=2&hBranchID=1&hsysgrp=1&hucode=&hUserGroup=&ccode=PCC&hEmpRefId=0&h=Secret&loginT=2018-03-23%2005:08:10%20AM&file=scrnMasterFile&paramTitle=MASTERFILE&auth=ffae7f7ca7a3c576da68b27a3bc55bce088e6926
03232018 05:08:36 AM->URL:/HRISDEV/hris/min/e2e/resources/views/pages/GlobalCaller.e2e.php?hSess=MTUyMTc1Mjg5MDIwMTgwMzIzXzE1MjE3NTI4OTAyMDE4MDMyM19heg==&hUser=admin&hUserRefId=46&hCompanyID=2&hBranchID=1&hsysgrp=1&hucode=&hUserGroup=&ccode=PCC&hEmpRefId=0&h=Secret&loginT=2018-03-23%2005:08:10%20AM&file=scrnUsers&id=mCreateUser&auth=81bcc89b9058aa02aeadfcb08172f4a02e561d4a
03232018 05:14:46 AM->URL:/HRISDEV/hris/min/e2e/resources/views/pages/GlobalCaller.e2e.php?hSess=MTUyMTc1Mjg5MDIwMTgwMzIzXzE1MjE3NTI4OTAyMDE4MDMyM19heg==&hUser=admin&hUserRefId=46&hCompanyID=2&hBranchID=1&hsysgrp=1&hucode=&hUserGroup=&ccode=PCC&hEmpRefId=0&h=Secret&loginT=2018-03-23%2005:08:10%20AM&file=scrnMasterFile&paramTitle=MASTER%20FILE&hTable=&hGridTblHdr=&hGridTblFld=&auth=d2c7bfbdfcb08eb19519928be158a82b0af4787b
03232018 05:14:50 AM->URL:/HRISDEV/hris/min/e2e/resources/views/pages/GlobalCaller.e2e.php?hSess=MTUyMTc1Mjg5MDIwMTgwMzIzXzE1MjE3NTI4OTAyMDE4MDMyM19heg==&hUser=admin&hUserRefId=46&hCompanyID=2&hBranchID=1&hsysgrp=1&hucode=&hUserGroup=&ccode=PCC&hEmpRefId=0&h=Secret&loginT=2018-03-23%2005:08:10%20AM&file=scrnWelcome&paramTitle=&auth=88a2ab03ddc94cda691d12dc89708a7159d40d2c
03232018 05:14:53 AM->URL:/HRISDEV/hris/min/e2e/resources/views/pages/GlobalCaller.e2e.php?hSess=MTUyMTc1Mjg5MDIwMTgwMzIzXzE1MjE3NTI4OTAyMDE4MDMyM19heg==&hUser=admin&hUserRefId=46&hCompanyID=2&hBranchID=1&hsysgrp=1&hucode=&hUserGroup=&ccode=PCC&hEmpRefId=0&h=Secret&loginT=2018-03-23%2005:08:10%20AM&file=admUserAccessSystem&id=admUserAccessSys&auth=0b58938ee6fd092386f24d14cadf0e1fe30003c0
03232018 05:15:04 AM->URL:/HRISDEV/hris/min/e2e/resources/views/pages/GlobalCaller.e2e.php?hSess=MTUyMTc1Mjg5MDIwMTgwMzIzXzE1MjE3NTI4OTAyMDE4MDMyM19heg==&hUser=admin&hUserRefId=46&hCompanyID=2&hBranchID=1&hsysgrp=1&hucode=&hUserGroup=&ccode=PCC&hEmpRefId=0&h=Secret&loginT=2018-03-23%2005:08:10%20AM&file=scrnMasterFile&paramTitle=MASTERFILE&auth=c3176567eb1a5abfb7f6542fc63807ef6c4c819c
03232018 05:15:08 AM->URL:/HRISDEV/hris/min/e2e/resources/views/pages/GlobalCaller.e2e.php?hSess=MTUyMTc1Mjg5MDIwMTgwMzIzXzE1MjE3NTI4OTAyMDE4MDMyM19heg==&hUser=admin&hUserRefId=46&hCompanyID=2&hBranchID=1&hsysgrp=1&hucode=&hUserGroup=&ccode=PCC&hEmpRefId=0&h=Secret&loginT=2018-03-23%2005:08:10%20AM&file=scrnWelcome&paramTitle=&auth=e989c7c1cb266ba0392c21e4da385913a69bc120
03232018 05:15:10 AM->URL:/HRISDEV/hris/min/e2e/resources/views/pages/GlobalCaller.e2e.php?hSess=MTUyMTc1Mjg5MDIwMTgwMzIzXzE1MjE3NTI4OTAyMDE4MDMyM19heg==&hUser=admin&hUserRefId=46&hCompanyID=2&hBranchID=1&hsysgrp=1&hucode=&hUserGroup=&ccode=PCC&hEmpRefId=0&h=Secret&loginT=2018-03-23%2005:08:10%20AM&file=admUserAccessSystem&id=admUserAccessSys&auth=35bad5ea60c53d7f99bc64c6198e5b36c130234c
03232018 05:15:25 AM->URL:/HRISDEV/hris/min/e2e/resources/views/pages/GlobalCaller.e2e.php?hSess=MTUyMTc1Mjg5MDIwMTgwMzIzXzE1MjE3NTI4OTAyMDE4MDMyM19heg==&hUser=admin&hUserRefId=46&hCompanyID=2&hBranchID=1&hsysgrp=1&hucode=&hUserGroup=&ccode=PCC&hEmpRefId=0&h=Secret&loginT=2018-03-23%2005:08:10%20AM&file=scrnMasterFile&paramTitle=MASTERFILE&auth=3056f3b339b46b762265b0ccf316928d4eef3628
03232018 05:15:30 AM->URL:/HRISDEV/hris/min/e2e/resources/views/pages/GlobalCaller.e2e.php?hSess=MTUyMTc1Mjg5MDIwMTgwMzIzXzE1MjE3NTI4OTAyMDE4MDMyM19heg==&hUser=admin&hUserRefId=46&hCompanyID=2&hBranchID=1&hsysgrp=1&hucode=&hUserGroup=&ccode=PCC&hEmpRefId=0&h=Secret&loginT=2018-03-23%2005:08:10%20AM&file=scrnUsers&id=mCreateUser&auth=b2e1b75bdaf3db3d28bb7928b9ecc1d9c8397537
03232018 05:20:20 AM->URL:/HRISDEV/hris/min/e2e/resources/views/pages/GlobalCaller.e2e.php?hSess=MTUyMTc1Mjg5MDIwMTgwMzIzXzE1MjE3NTI4OTAyMDE4MDMyM19heg==&hUser=admin&hUserRefId=46&hCompanyID=2&hBranchID=1&hsysgrp=1&hucode=&hUserGroup=&ccode=PCC&hEmpRefId=0&h=Secret&loginT=2018-03-23%2005:08:10%20AM&file=scrnFileManager&paramTitle=FILE%20MANAGER&fmMenu=Close&hTable=&hGridTblHdr=&hGridTblFld=&auth=befcbe858c69cf7d29f46d29281eca4fb32da141
03232018 05:20:27 AM->URL:/HRISDEV/hris/min/e2e/resources/views/pages/GlobalCaller.e2e.php?hSess=MTUyMTc1Mjg5MDIwMTgwMzIzXzE1MjE3NTI4OTAyMDE4MDMyM19heg==&hUser=admin&hUserRefId=46&hCompanyID=2&hBranchID=1&hsysgrp=1&hucode=&hUserGroup=&ccode=PCC&hEmpRefId=0&h=Secret&loginT=2018-03-23%2005:08:10%20AM&file=DataManager&n=System%20Group&hTable=SysGroup&hmode=List&hSysData=DataLibrary&hChildFile=modelSysGroup&hGridTblHdr=Code|Name|Remarks&hGridTblFld=Code|Name|Remarks&hModel=modelSysGroup&auth=36435a4602de08984b37d643c5081af0b6ae7d66
03232018 05:22:28 AM->URL:/HRISDEV/hris/min/e2e/resources/views/pages/GlobalCaller.e2e.php?hSess=MTUyMTc1Mjg5MDIwMTgwMzIzXzE1MjE3NTI4OTAyMDE4MDMyM19heg==&hUser=admin&hUserRefId=46&hCompanyID=2&hBranchID=1&hsysgrp=1&hucode=&hUserGroup=&ccode=PCC&hEmpRefId=0&h=Secret&loginT=2018-03-23%2005:08:10%20AM&file=scrnFileManager&paramTitle=FILE%20MANAGER&hTable=&hGridTblHdr=&hGridTblFld=&auth=60407c986c2dbcfc76f00d1dd979695110b78d71
03232018 05:22:31 AM->URL:/HRISDEV/hris/min/e2e/resources/views/pages/GlobalCaller.e2e.php?hSess=MTUyMTc1Mjg5MDIwMTgwMzIzXzE1MjE3NTI4OTAyMDE4MDMyM19heg==&hUser=admin&hUserRefId=46&hCompanyID=2&hBranchID=1&hsysgrp=1&hucode=&hUserGroup=&ccode=PCC&hEmpRefId=0&h=Secret&loginT=2018-03-23%2005:08:10%20AM&file=scrnWelcome&paramTitle=&auth=d1e35880a64ec0108b48f0d82e0b601a2a6ea604
03232018 05:22:33 AM->URL:/HRISDEV/hris/min/e2e/resources/views/pages/GlobalCaller.e2e.php?hSess=MTUyMTc1Mjg5MDIwMTgwMzIzXzE1MjE3NTI4OTAyMDE4MDMyM19heg==&hUser=admin&hUserRefId=46&hCompanyID=2&hBranchID=1&hsysgrp=1&hucode=&hUserGroup=&ccode=PCC&hEmpRefId=0&h=Secret&loginT=2018-03-23%2005:08:10%20AM&file=scrnMasterFile&paramTitle=MASTERFILE&auth=a7d7342573f818b7512b7e5615f53ae7da519e8a
03232018 05:22:40 AM->URL:/HRISDEV/hris/min/e2e/resources/views/pages/GlobalCaller.e2e.php?hSess=MTUyMTc1Mjg5MDIwMTgwMzIzXzE1MjE3NTI4OTAyMDE4MDMyM19heg==&hUser=admin&hUserRefId=46&hCompanyID=2&hBranchID=1&hsysgrp=1&hucode=&hUserGroup=&ccode=PCC&hEmpRefId=0&h=Secret&loginT=2018-03-23%2005:08:10%20AM&file=scrnSysAccount&id=mSysUserProfile&auth=bcaf231f3a724883f7887321abcbbb9328295cb6
03232018 05:22:55 AM->URL:/HRISDEV/hris/min/e2e/resources/views/pages/GlobalCaller.e2e.php?hSess=MTUyMTc1Mjg5MDIwMTgwMzIzXzE1MjE3NTI4OTAyMDE4MDMyM19heg==&hUser=admin&hUserRefId=46&hCompanyID=2&hBranchID=1&hsysgrp=1&hucode=&hUserGroup=&ccode=PCC&hEmpRefId=0&h=Secret&loginT=2018-03-23%2005:08:10%20AM&file=scrnWelcome&paramTitle=&auth=ed6c10a60595a7b5d636f06b1e15150538dd4e92
03232018 05:23:00 AM->URL:/HRISDEV/hris/min/e2e/resources/views/pages/GlobalCaller.e2e.php?hSess=MTUyMTc1Mjg5MDIwMTgwMzIzXzE1MjE3NTI4OTAyMDE4MDMyM19heg==&hUser=admin&hUserRefId=46&hCompanyID=2&hBranchID=1&hsysgrp=1&hucode=&hUserGroup=&ccode=PCC&hEmpRefId=0&h=Secret&loginT=2018-03-23%2005:08:10%20AM&file=scrnMasterFile&paramTitle=MASTERFILE&auth=2c22e0b7c2efce4bab0670eb82f9f14eb778e091
03232018 05:23:02 AM->URL:/HRISDEV/hris/min/e2e/resources/views/pages/GlobalCaller.e2e.php?hSess=MTUyMTc1Mjg5MDIwMTgwMzIzXzE1MjE3NTI4OTAyMDE4MDMyM19heg==&hUser=admin&hUserRefId=46&hCompanyID=2&hBranchID=1&hsysgrp=1&hucode=&hUserGroup=&ccode=PCC&hEmpRefId=0&h=Secret&loginT=2018-03-23%2005:08:10%20AM&file=scrnFileManager&paramTitle=FILE%20MANAGER&fmMenu=Close&hTable=&hGridTblHdr=&hGridTblFld=&auth=f5b198d48e46e758af41444344ec098ac7efd3d9
03232018 05:23:10 AM->URL:/HRISDEV/hris/min/e2e/resources/views/pages/GlobalCaller.e2e.php?hSess=MTUyMTc1Mjg5MDIwMTgwMzIzXzE1MjE3NTI4OTAyMDE4MDMyM19heg==&hUser=admin&hUserRefId=46&hCompanyID=2&hBranchID=1&hsysgrp=1&hucode=&hUserGroup=&ccode=PCC&hEmpRefId=0&h=Secret&loginT=2018-03-23%2005:08:10%20AM&file=DataManager&n=System%20User&hTable=SysUser&hmode=List&hSysData=DataLibrary&hChildFile=modelSysUser&hGridTblHdr=Employees%20Name|System%20Group|User%20Name&hGridTblFld=EmployeesRefId|SysGroupRefId|UserName&hModel=modelSysUser&auth=5cb2b63dd1d45252bbdf3508f6e6d6017c0c0a0b
03232018 05:23:26 AM->URL:/HRISDEV/hris/min/e2e/resources/views/pages/GlobalCaller.e2e.php?hSess=MTUyMTc1Mjg5MDIwMTgwMzIzXzE1MjE3NTI4OTAyMDE4MDMyM19heg==&hUser=admin&hUserRefId=46&hCompanyID=2&hBranchID=1&hsysgrp=1&hucode=&hUserGroup=&ccode=PCC&hEmpRefId=0&h=Secret&loginT=2018-03-23%2005:08:10%20AM&file=scrnFileManager&paramTitle=FILE%20MANAGER&fmMenu=Close&hTable=&hGridTblHdr=&hGridTblFld=&auth=5623c9e62d3da402f49d9540904009f1a35ce525
03232018 05:23:30 AM->URL:/HRISDEV/hris/min/e2e/resources/views/pages/GlobalCaller.e2e.php?hSess=MTUyMTc1Mjg5MDIwMTgwMzIzXzE1MjE3NTI4OTAyMDE4MDMyM19heg==&hUser=admin&hUserRefId=46&hCompanyID=2&hBranchID=1&hsysgrp=1&hucode=&hUserGroup=&ccode=PCC&hEmpRefId=0&h=Secret&loginT=2018-03-23%2005:08:10%20AM&file=DataManager&n=System%20Group&hTable=SysGroup&hmode=List&hSysData=DataLibrary&hChildFile=modelSysGroup&hGridTblHdr=Code|Name|Remarks&hGridTblFld=Code|Name|Remarks&hModel=modelSysGroup&auth=ca6046ba3f086c205b636df1bd5ea8821a8f4877
03232018 05:24:15 AM->URL:/HRISDEV/hris/min/e2e/resources/views/pages/GlobalCaller.e2e.php?hSess=MTUyMTc1Mjg5MDIwMTgwMzIzXzE1MjE3NTI4OTAyMDE4MDMyM19heg==&hUser=admin&hUserRefId=46&hCompanyID=2&hBranchID=1&hsysgrp=1&hucode=&hUserGroup=&ccode=PCC&hEmpRefId=0&h=Secret&loginT=2018-03-23%2005:08:10%20AM&file=scrnFileManager&paramTitle=FILE%20MANAGER&hTable=&hGridTblHdr=&hGridTblFld=&auth=03e86b31ed162c2bd05e8f5bd2869146b4d48856
03232018 05:24:17 AM->URL:/HRISDEV/hris/min/e2e/resources/views/pages/GlobalCaller.e2e.php?hSess=MTUyMTc1Mjg5MDIwMTgwMzIzXzE1MjE3NTI4OTAyMDE4MDMyM19heg==&hUser=admin&hUserRefId=46&hCompanyID=2&hBranchID=1&hsysgrp=1&hucode=&hUserGroup=&ccode=PCC&hEmpRefId=0&h=Secret&loginT=2018-03-23%2005:08:10%20AM&file=scrn201File&paramTitle=201%20File&hTable=employees&hGridTblHdr=Last%20Name|First%20Name|Contact%20No|Birth%20Date|Civil%20Status&hGridTblFld=LastName|FirstName|ContactNo|BirthDate|CivilStatus&auth=edf8f0ac2593e81857269a371abcf732553fde4c
03232018 05:24:19 AM->URL:/HRISDEV/hris/min/e2e/resources/views/pages/GlobalCaller.e2e.php?hSess=MTUyMTc1Mjg5MDIwMTgwMzIzXzE1MjE3NTI4OTAyMDE4MDMyM19heg==&hUser=admin&hUserRefId=46&hCompanyID=2&hBranchID=1&hsysgrp=1&hucode=&hUserGroup=&ccode=PCC&hEmpRefId=0&h=Secret&loginT=2018-03-23%2005:08:10%20AM&file=scrnWelcome&paramTitle=&auth=72fded1ac543eb8a1c9b4b5e6f6ae391e2f2f8c3
03232018 05:24:22 AM->URL:/HRISDEV/hris/min/e2e/resources/views/pages/GlobalCaller.e2e.php?hSess=MTUyMTc1Mjg5MDIwMTgwMzIzXzE1MjE3NTI4OTAyMDE4MDMyM19heg==&hUser=admin&hUserRefId=46&hCompanyID=2&hBranchID=1&hsysgrp=1&hucode=&hUserGroup=&ccode=PCC&hEmpRefId=0&h=Secret&loginT=2018-03-23%2005:08:10%20AM&file=admUserAccessSystem&id=admUserAccessSys&auth=8fff98bc6e4c010a1386bb4dc0b0e5e0371d4faa
03232018 05:25:04 AM->URL:/HRISDEV/hris/min/e2e/resources/views/pages/GlobalCaller.e2e.php?hSess=MTUyMTc1Mjg5MDIwMTgwMzIzXzE1MjE3NTI4OTAyMDE4MDMyM19heg==&hUser=admin&hUserRefId=46&hCompanyID=2&hBranchID=1&hsysgrp=1&hucode=&hUserGroup=&ccode=PCC&hEmpRefId=0&h=Secret&loginT=2018-03-23%2005:08:10%20AM&file=scrnLogOut&id=scrnLogOut&auth=27b79cc20aa0555baf0d60728cb30d1155ddbaf2
03232018 06:00:16 AM->URL:/HRISDEV/hris/min/e2e/resources/views/pages/GlobalCaller.e2e.php?hSess=MTUyMTc1NjAxNjIwMTgwMzIzXzE1MjE3NTYwMTYyMDE4MDMyM19heg==&hUser=admin&hUserRefId=46&hCompanyID=2&hBranchID=1&hsysgrp=1&hucode=SYSAD&hUserGroup=SYSAD&ccode=PCC&hEmpRefId=0&h=Secret&loginT=2018-03-23%2006:00:16%20AM&file=scrnWelcome&auth=init
03232018 06:00:24 AM->URL:/HRISDEV/hris/min/e2e/resources/views/pages/GlobalCaller.e2e.php?hSess=MTUyMTc1NjAxNjIwMTgwMzIzXzE1MjE3NTYwMTYyMDE4MDMyM19heg==&hUser=admin&hUserRefId=46&hCompanyID=2&hBranchID=1&hsysgrp=1&hucode=SYSAD&hUserGroup=SYSAD&ccode=PCC&hEmpRefId=0&h=Secret&loginT=2018-03-23%2006:00:16%20AM&file=admUserAccessSystem&id=admUserAccessSys&auth=d7827c0583106ee43aa2651e40a4234b9e4fea7f
03232018 06:00:38 AM->URL:/HRISDEV/hris/min/e2e/resources/views/pages/GlobalCaller.e2e.php?hSess=MTUyMTc1NjAxNjIwMTgwMzIzXzE1MjE3NTYwMTYyMDE4MDMyM19heg==&hUser=admin&hUserRefId=46&hCompanyID=2&hBranchID=1&hsysgrp=1&hucode=SYSAD&hUserGroup=SYSAD&ccode=PCC&hEmpRefId=0&h=Secret&loginT=2018-03-23%2006:00:16%20AM&file=scrnLogOut&id=scrnLogOut&auth=f35b3c1077ebcd2e26c0a218a36b21015fb10c42
03232018 06:02:02 AM->URL:/HRISDEV/hris/min/e2e/resources/views/pages/GlobalCaller.e2e.php?hSess=MTUyMTc1NjEyMjIwMTgwMzIzXzE1MjE3NTYxMjIyMDE4MDMyM19heg==&hUser=admin&hUserRefId=46&hCompanyID=2&hBranchID=1&hsysgrp=1&hucode=SYSAD&hUserGroup=SYSAD&ccode=PCC&hEmpRefId=0&h=Secret&loginT=2018-03-23%2006:02:02%20AM&file=scrnWelcome&auth=init
03232018 06:02:12 AM->URL:/HRISDEV/hris/min/e2e/resources/views/pages/GlobalCaller.e2e.php?hSess=MTUyMTc1NjEyMjIwMTgwMzIzXzE1MjE3NTYxMjIyMDE4MDMyM19heg==&hUser=admin&hUserRefId=46&hCompanyID=2&hBranchID=1&hsysgrp=1&hucode=SYSAD&hUserGroup=SYSAD&ccode=PCC&hEmpRefId=0&h=Secret&loginT=2018-03-23%2006:02:02%20AM&file=scrnMasterFile&paramTitle=MASTERFILE&auth=0bd7e8d837f1df8a36957debbd9e684fb33ffa27
03232018 06:02:16 AM->URL:/HRISDEV/hris/min/e2e/resources/views/pages/GlobalCaller.e2e.php?hSess=MTUyMTc1NjEyMjIwMTgwMzIzXzE1MjE3NTYxMjIyMDE4MDMyM19heg==&hUser=admin&hUserRefId=46&hCompanyID=2&hBranchID=1&hsysgrp=1&hucode=SYSAD&hUserGroup=SYSAD&ccode=PCC&hEmpRefId=0&h=Secret&loginT=2018-03-23%2006:02:02%20AM&file=scrnUsers&id=mCreateUser&auth=c7e820383a955d683c62a15673c175a416ebcf55
03232018 06:02:21 AM->URL:/HRISDEV/hris/min/e2e/resources/views/pages/GlobalCaller.e2e.php?hSess=MTUyMTc1NjEyMjIwMTgwMzIzXzE1MjE3NTYxMjIyMDE4MDMyM19heg==&hUser=admin&hUserRefId=46&hCompanyID=2&hBranchID=1&hsysgrp=1&hucode=SYSAD&hUserGroup=SYSAD&ccode=PCC&hEmpRefId=0&h=Secret&loginT=2018-03-23%2006:02:02%20AM&file=scrnFileManager&paramTitle=FILE%20MANAGER&fmMenu=Close&hTable=&hGridTblHdr=&hGridTblFld=&auth=bc397ce2da5e0f125452368bd9a99832cfe4ca39
03232018 06:02:25 AM->URL:/HRISDEV/hris/min/e2e/resources/views/pages/GlobalCaller.e2e.php?hSess=MTUyMTc1NjEyMjIwMTgwMzIzXzE1MjE3NTYxMjIyMDE4MDMyM19heg==&hUser=admin&hUserRefId=46&hCompanyID=2&hBranchID=1&hsysgrp=1&hucode=SYSAD&hUserGroup=SYSAD&ccode=PCC&hEmpRefId=0&h=Secret&loginT=2018-03-23%2006:02:02%20AM&file=DataManager&n=System%20User&hTable=SysUser&hmode=List&hSysData=DataLibrary&hChildFile=modelSysUser&hGridTblHdr=Employees%20Name|System%20Group|User%20Name&hGridTblFld=EmployeesRefId|SysGroupRefId|UserName&hModel=modelSysUser&auth=d8481020c2b6916fe1f378f396a6f77f7b273b70
03232018 06:02:48 AM->URL:/HRISDEV/hris/min/e2e/resources/views/pages/GlobalCaller.e2e.php?hSess=MTUyMTc1NjEyMjIwMTgwMzIzXzE1MjE3NTYxMjIyMDE4MDMyM19heg==&hUser=admin&hUserRefId=46&hCompanyID=2&hBranchID=1&hsysgrp=1&hucode=SYSAD&hUserGroup=SYSAD&ccode=PCC&hEmpRefId=0&h=Secret&loginT=2018-03-23%2006:02:02%20AM&file=scrnFileManager&paramTitle=FILE%20MANAGER&fmMenu=Close&hTable=&hGridTblHdr=&hGridTblFld=&auth=0d98f4c93d868469d0065e88a12f35d270bea2af
03232018 06:02:52 AM->URL:/HRISDEV/hris/min/e2e/resources/views/pages/GlobalCaller.e2e.php?hSess=MTUyMTc1NjEyMjIwMTgwMzIzXzE1MjE3NTYxMjIyMDE4MDMyM19heg==&hUser=admin&hUserRefId=46&hCompanyID=2&hBranchID=1&hsysgrp=1&hucode=SYSAD&hUserGroup=SYSAD&ccode=PCC&hEmpRefId=0&h=Secret&loginT=2018-03-23%2006:02:02%20AM&file=DataManager&n=System%20User&hTable=SysUser&hmode=List&hSysData=DataLibrary&hChildFile=modelSysUser&hGridTblHdr=Employees%20Name|System%20Group|User%20Name&hGridTblFld=EmployeesRefId|SysGroupRefId|UserName&hModel=modelSysUser&auth=b8c24076c40ae4c8c27fce8c4d13a6a9d5bb214a
03232018 06:03:05 AM->URL:/HRISDEV/hris/min/e2e/resources/views/pages/GlobalCaller.e2e.php?hSess=MTUyMTc1NjEyMjIwMTgwMzIzXzE1MjE3NTYxMjIyMDE4MDMyM19heg==&hUser=admin&hUserRefId=46&hCompanyID=2&hBranchID=1&hsysgrp=1&hucode=SYSAD&hUserGroup=SYSAD&ccode=PCC&hEmpRefId=0&h=Secret&loginT=2018-03-23%2006:02:02%20AM&file=scrnUsers&id=mCreateUser&auth=b1a3e80ef388f1e1ad4ac2d09cb880ae8b4fbf6f
03232018 06:04:28 AM->URL:/HRISDEV/hris/min/e2e/resources/views/pages/GlobalCaller.e2e.php?hSess=MTUyMTc1NjEyMjIwMTgwMzIzXzE1MjE3NTYxMjIyMDE4MDMyM19heg==&hUser=admin&hUserRefId=46&hCompanyID=2&hBranchID=1&hsysgrp=1&hucode=SYSAD&hUserGroup=SYSAD&ccode=PCC&hEmpRefId=0&h=Secret&loginT=2018-03-23%2006:02:02%20AM&file=scrnUsers&id=mCreateUser&auth=021ac3a83c511bef8e888c4313269e4c686ba5c0
03232018 06:04:35 AM->URL:/HRISDEV/hris/min/e2e/resources/views/pages/GlobalCaller.e2e.php?hSess=MTUyMTc1NjEyMjIwMTgwMzIzXzE1MjE3NTYxMjIyMDE4MDMyM19heg==&hUser=admin&hUserRefId=46&hCompanyID=2&hBranchID=1&hsysgrp=1&hucode=SYSAD&hUserGroup=SYSAD&ccode=PCC&hEmpRefId=0&h=Secret&loginT=2018-03-23%2006:02:02%20AM&file=scrnWelcome&paramTitle=&auth=ee3d5dfbc974e1ebe83bb5c4033ec3951a62c4b2
03232018 06:04:41 AM->URL:/HRISDEV/hris/min/e2e/resources/views/pages/GlobalCaller.e2e.php?hSess=MTUyMTc1NjEyMjIwMTgwMzIzXzE1MjE3NTYxMjIyMDE4MDMyM19heg==&hUser=admin&hUserRefId=46&hCompanyID=2&hBranchID=1&hsysgrp=1&hucode=SYSAD&hUserGroup=SYSAD&ccode=PCC&hEmpRefId=0&h=Secret&loginT=2018-03-23%2006:02:02%20AM&file=admUserAccessSystem&id=admUserAccessSys&auth=8d1be62eb2fa0d96b4e9a2e450d71ca683b77f5a
03232018 06:05:45 AM->URL:/HRISDEV/hris/min/e2e/resources/views/pages/GlobalCaller.e2e.php?hSess=MTUyMTc1NjEyMjIwMTgwMzIzXzE1MjE3NTYxMjIyMDE4MDMyM19heg==&hUser=admin&hUserRefId=46&hCompanyID=2&hBranchID=1&hsysgrp=1&hucode=SYSAD&hUserGroup=SYSAD&ccode=PCC&hEmpRefId=0&h=Secret&loginT=2018-03-23%2006:02:02%20AM&file=scrnLogOut&id=scrnLogOut&auth=418e191f2e78bb279c43b40f729d32efa93b0a81
03232018 08:21:37 AM->URL:/HRISDEV/hris/min/e2e/resources/views/pages/GlobalCaller.e2e.php?hSess=MTUyMTc2NDQ5NzIwMTgwMzIzXzE1MjE3NjQ0OTcyMDE4MDMyM19heg==&hUser=admin&hUserRefId=46&hCompanyID=2&hBranchID=1&hsysgrp=1&hucode=SYSAD&hUserGroup=SYSAD&ccode=PCC&hEmpRefId=0&h=Secret&loginT=2018-03-23%2008:21:37%20AM&file=scrnWelcome&auth=init
03232018 08:21:42 AM->URL:/HRISDEV/hris/min/e2e/resources/views/pages/GlobalCaller.e2e.php?hSess=MTUyMTc2NDQ5NzIwMTgwMzIzXzE1MjE3NjQ0OTcyMDE4MDMyM19heg==&hUser=admin&hUserRefId=46&hCompanyID=2&hBranchID=1&hsysgrp=1&hucode=SYSAD&hUserGroup=SYSAD&ccode=PCC&hEmpRefId=0&h=Secret&loginT=2018-03-23%2008:21:37%20AM&file=scrnMasterFile&paramTitle=MASTERFILE&auth=a0eb3cd39a998cd086523381616194025813566a
03232018 08:21:45 AM->URL:/HRISDEV/hris/min/e2e/resources/views/pages/GlobalCaller.e2e.php?hSess=MTUyMTc2NDQ5NzIwMTgwMzIzXzE1MjE3NjQ0OTcyMDE4MDMyM19heg==&hUser=admin&hUserRefId=46&hCompanyID=2&hBranchID=1&hsysgrp=1&hucode=SYSAD&hUserGroup=SYSAD&ccode=PCC&hEmpRefId=0&h=Secret&loginT=2018-03-23%2008:21:37%20AM&file=scrnFileManager&paramTitle=FILE%20MANAGER&fmMenu=Close&hTable=&hGridTblHdr=&hGridTblFld=&auth=ce85b8ec29d3cb2cd4fcc2e54819bb705cb938b9
03232018 08:21:52 AM->URL:/HRISDEV/hris/min/e2e/resources/views/pages/GlobalCaller.e2e.php?hSess=MTUyMTc2NDQ5NzIwMTgwMzIzXzE1MjE3NjQ0OTcyMDE4MDMyM19heg==&hUser=admin&hUserRefId=46&hCompanyID=2&hBranchID=1&hsysgrp=1&hucode=SYSAD&hUserGroup=SYSAD&ccode=PCC&hEmpRefId=0&h=Secret&loginT=2018-03-23%2008:21:37%20AM&file=DataManager&n=seminar%20class&hTable=seminarclass&hmode=List&hSysData=DataLibrary&hChildFile=modelSeminarClassifications&hGridTblHdr=Code|Name|Remarks&hGridTblFld=Code|Name|Remarks&hModel=modelSeminarClassifications&auth=30c8958930560f4e89f36c9c9fd51c0209857000
03232018 08:23:08 AM->URL:/HRISDEV/hris/min/e2e/resources/views/pages/GlobalCaller.e2e.php?hSess=MTUyMTc2NDQ5NzIwMTgwMzIzXzE1MjE3NjQ0OTcyMDE4MDMyM19heg==&hUser=admin&hUserRefId=46&hCompanyID=2&hBranchID=1&hsysgrp=1&hucode=SYSAD&hUserGroup=SYSAD&ccode=PCC&hEmpRefId=0&h=Secret&loginT=2018-03-23%2008:21:37%20AM&file=scrnFileManager&paramTitle=FILE%20MANAGER&hTable=&hGridTblHdr=&hGridTblFld=&auth=9244dcafcce9ed8ae9d4d994d6dba1b9644e33c1
03232018 08:23:12 AM->URL:/HRISDEV/hris/min/e2e/resources/views/pages/GlobalCaller.e2e.php?hSess=MTUyMTc2NDQ5NzIwMTgwMzIzXzE1MjE3NjQ0OTcyMDE4MDMyM19heg==&hUser=admin&hUserRefId=46&hCompanyID=2&hBranchID=1&hsysgrp=1&hucode=SYSAD&hUserGroup=SYSAD&ccode=PCC&hEmpRefId=0&h=Secret&loginT=2018-03-23%2008:21:37%20AM&file=DataManager&n=Seminar%20Type&hTable=SeminarType&hmode=List&hSysData=DataLibrary&hChildFile=modelSeminarType&hGridTblHdr=Code|Name|Remarks&hGridTblFld=Code|Name|Remarks&hModel=modelSeminarType&auth=fbfd087f7e8a1444b3e4bdbaede475fabf8022c8
03232018 08:23:58 AM->URL:/HRISDEV/hris/min/e2e/resources/views/pages/GlobalCaller.e2e.php?hSess=MTUyMTc2NDQ5NzIwMTgwMzIzXzE1MjE3NjQ0OTcyMDE4MDMyM19heg==&hUser=admin&hUserRefId=46&hCompanyID=2&hBranchID=1&hsysgrp=1&hucode=SYSAD&hUserGroup=SYSAD&ccode=PCC&hEmpRefId=0&h=Secret&loginT=2018-03-23%2008:21:37%20AM&file=scrnFileManager&paramTitle=FILE%20MANAGER&hTable=&hGridTblHdr=&hGridTblFld=&auth=8003a965d53333a7635d6eaa25da092dc17b634d
03232018 08:26:31 AM->URL:/HRISDEV/hris/min/e2e/resources/views/pages/GlobalCaller.e2e.php?hSess=MTUyMTc2NDc5MTIwMTgwMzIzXzE1MjE3NjQ3OTEyMDE4MDMyM19heg==&hUser=admin&hUserRefId=46&hCompanyID=2&hBranchID=1&hsysgrp=1&hucode=SYSAD&hUserGroup=SYSAD&ccode=PCC&hEmpRefId=0&h=Secret&loginT=2018-03-23%2008:26:31%20AM&file=scrnWelcome&auth=init
03232018 08:27:26 AM->URL:/HRISDEV/hris/min/e2e/resources/views/pages/GlobalCaller.e2e.php?hSess=MTUyMTc2NDQ5NzIwMTgwMzIzXzE1MjE3NjQ0OTcyMDE4MDMyM19heg==&hUser=admin&hUserRefId=46&hCompanyID=2&hBranchID=1&hsysgrp=1&hucode=SYSAD&hUserGroup=SYSAD&ccode=PCC&hEmpRefId=0&h=Secret&loginT=2018-03-23%2008:21:37%20AM&file=DataManager&n=seminar%20class&hTable=seminarclass&hmode=List&hSysData=DataLibrary&hChildFile=modelSeminarClassifications&hGridTblHdr=Code|Name|Remarks&hGridTblFld=Code|Name|Remarks&hModel=modelSeminarClassifications&auth=bebf8499ce7c21e80b8a67371e6ed52239b23a2a
03232018 10:12:45 AM->URL:/HRISDEV/hris/min/e2e/resources/views/pages/GlobalCaller.e2e.php?hSess=MTUyMTc3MTE2NTIwMTgwMzIzXzE1MjE3NzExNjUyMDE4MDMyM19heg==&hUser=admin&hUserRefId=46&hCompanyID=2&hBranchID=1&hsysgrp=1&hucode=SYSAD&hUserGroup=SYSAD&ccode=PCC&hEmpRefId=0&h=Secret&loginT=2018-03-23%2010:12:45%20AM&file=scrnWelcome&auth=init
03232018 10:13:03 AM->URL:/HRISDEV/hris/min/e2e/resources/views/pages/GlobalCaller.e2e.php?hSess=MTUyMTc3MTE2NTIwMTgwMzIzXzE1MjE3NzExNjUyMDE4MDMyM19heg==&hUser=admin&hUserRefId=46&hCompanyID=2&hBranchID=1&hsysgrp=1&hucode=SYSAD&hUserGroup=SYSAD&ccode=PCC&hEmpRefId=0&h=Secret&loginT=2018-03-23%2010:12:45%20AM&file=ldmsIndividualDevtPlan&paramTitle=INDIVIDUAL%20DEVELOPMENT%20PLAN&auth=bcecae3f9549b7dca90153d69ba6675c4ebfc415
03232018 10:13:47 AM->URL:/HRISDEV/hris/min/e2e/resources/views/pages/GlobalCaller.e2e.php?hSess=MTUyMTc3MTE2NTIwMTgwMzIzXzE1MjE3NzExNjUyMDE4MDMyM19heg==&hUser=admin&hUserRefId=46&hCompanyID=2&hBranchID=1&hsysgrp=1&hucode=SYSAD&hUserGroup=SYSAD&ccode=PCC&hEmpRefId=0&h=Secret&loginT=2018-03-23%2010:12:45%20AM&file=scrnWelcome&auth=init
03232018 10:13:53 AM->URL:/HRISDEV/hris/min/e2e/resources/views/pages/GlobalCaller.e2e.php?hSess=MTUyMTc3MTE2NTIwMTgwMzIzXzE1MjE3NzExNjUyMDE4MDMyM19heg==&hUser=admin&hUserRefId=46&hCompanyID=2&hBranchID=1&hsysgrp=1&hucode=SYSAD&hUserGroup=SYSAD&ccode=PCC&hEmpRefId=0&h=Secret&loginT=2018-03-23%2010:12:45%20AM&file=pmsEmployee&paramTitle=EMPLOYEES&auth=7a2f67ea25081efa13fb93159f5dafacca277100
03232018 10:15:43 AM->URL:/HRISDEV/hris/min/e2e/resources/views/pages/GlobalCaller.e2e.php?hSess=MTUyMTc3MTE2NTIwMTgwMzIzXzE1MjE3NzExNjUyMDE4MDMyM19heg==&hUser=admin&hUserRefId=46&hCompanyID=2&hBranchID=1&hsysgrp=1&hucode=SYSAD&hUserGroup=SYSAD&ccode=PCC&hEmpRefId=0&h=Secret&loginT=2018-03-23%2010:12:45%20AM&file=scrnWelcome&auth=init
03232018 11:44:05 AM->URL:/HRISDEV/hris/min/e2e/resources/views/pages/GlobalCaller.e2e.php?hSess=MTUyMTc2NDQ5NzIwMTgwMzIzXzE1MjE3NjQ0OTcyMDE4MDMyM19heg==&hUser=admin&hUserRefId=46&hCompanyID=2&hBranchID=1&hsysgrp=1&hucode=SYSAD&hUserGroup=SYSAD&ccode=PCC&hEmpRefId=0&h=Secret&loginT=2018-03-23%2008:21:37%20AM&file=scrnLogOut&id=mLogOut&auth=ed51efef66bf6b306614a5a6ec71ef81ffb62bc7
