04242018 04:26:09 PM->URL:/HRISDEV/hris/min/e2e/resources/views/pages/GlobalCaller.e2e.php?hSess=MTUyNDU1ODM2OTIwMTgwNDI0XzE1MjQ1NTgzNjkyMDE4MDQyNF9heg==&hUser=aubosque&hUserRefId=114&hCompanyID=2&hBranchID=1&hsysgrp=&hucode=COMPEMP&hUserGroup=COMPEMP&ccode=PCC&hEmpRefId=114&h=Secret&loginT=2018-04-24%2004:26:09%20PM&file=scrnWelcome&auth=init
04242018 04:26:11 PM->URL:/HRISDEV/hris/min/e2e/resources/views/pages/GlobalCaller.e2e.php?hSess=MTUyNDU1ODM2OTIwMTgwNDI0XzE1MjQ1NTgzNjkyMDE4MDQyNF9heg==&hUser=aubosque&hUserRefId=114&hCompanyID=2&hBranchID=1&hsysgrp=&hucode=COMPEMP&hUserGroup=COMPEMP&ccode=PCC&hEmpRefId=114&h=Secret&loginT=2018-04-24%2004:26:09%20PM&file=scrn201File&paramTitle=201%20File&hTable=Employees&auth=37f98567ad8843415e8e1d06a5f8d6e239e3646e
04242018 05:03:25 PM->URL:/HRISDEV/hris/min/e2e/resources/views/pages/GlobalCaller.e2e.php?hSess=MTUyNDU1ODM2OTIwMTgwNDI0XzE1MjQ1NTgzNjkyMDE4MDQyNF9heg==&hUser=aubosque&hUserRefId=114&hCompanyID=2&hBranchID=1&hsysgrp=&hucode=COMPEMP&hUserGroup=COMPEMP&ccode=PCC&hEmpRefId=114&h=Secret&loginT=2018-04-24%2004:26:09%20PM&file=scrn201File&paramTitle=201%20File&hTable=employees&hGridTblHdr=Last%20Name|First%20Name|Contact%20No|Birth%20Date|Civil%20Status&hGridTblFld=LastName|FirstName|ContactNo|BirthDate|CivilStatus&auth=fbedfa77e417451501c2e2debe97cd029f9867fe
04242018 05:03:51 PM->URL:/HRISDEV/hris/min/e2e/resources/views/pages/GlobalCaller.e2e.php?hSess=MTUyNDU1ODM2OTIwMTgwNDI0XzE1MjQ1NTgzNjkyMDE4MDQyNF9heg==&hUser=aubosque&hUserRefId=114&hCompanyID=2&hBranchID=1&hsysgrp=&hucode=COMPEMP&hUserGroup=COMPEMP&ccode=PCC&hEmpRefId=114&h=Secret&loginT=2018-04-24%2004:26:09%20PM&file=scrnWelcome&id=mExitModule&auth=2747edcc916d1694ddd1beaf9a25a08736eb941c
