02142018 09:52:00 AM->URL:/HRISDEV/hris/min/e2e/resources/views/pages/GlobalCaller.e2e.php?hSess=MTUxODU3MzEyMDIwMTgwMjE0XzE1MTg1NzMxMjAyMDE4MDIxNF9heg==&hUser=aubosque&hUserRefId=114&hCompanyID=2&hBranchID=1&hsysgrp=&hucode=COMPEMP&hUserGroup=COMPEMP&ccode=PCC&hEmpRefId=114&h=Secret&loginT=2018-02-14%2009:52:00%20AM&file=scrnWelcome&auth=init
02142018 09:53:16 AM->URL:/HRISDEV/hris/min/e2e/resources/views/pages/GlobalCaller.e2e.php?hSess=MTUxODU3MzE5NjIwMTgwMjE0XzE1MTg1NzMxOTYyMDE4MDIxNF9heg==&hUser=aubosque&hUserRefId=114&hCompanyID=2&hBranchID=1&hsysgrp=&hucode=COMPEMP&hUserGroup=COMPEMP&ccode=PCC&hEmpRefId=114&h=Secret&loginT=2018-02-14%2009:53:16%20AM&file=scrnWelcome&auth=init
02142018 09:53:18 AM->URL:/HRISDEV/hris/min/e2e/resources/views/pages/GlobalCaller.e2e.php?hSess=MTUxODU3MzE5NjIwMTgwMjE0XzE1MTg1NzMxOTYyMDE4MDIxNF9heg==&hUser=aubosque&hUserRefId=114&hCompanyID=2&hBranchID=1&hsysgrp=&hucode=COMPEMP&hUserGroup=COMPEMP&ccode=PCC&hEmpRefId=114&h=Secret&loginT=2018-02-14%2009:53:16%20AM&file=scrn201File&paramTitle=201%20File&hTable=Employees&auth=5d0157bdc292ca447815a00fd42ce62af56f89a7
02142018 10:21:17 AM->URL:/HRISDEV/hris/min/e2e/resources/views/pages/GlobalCaller.e2e.php?hSess=MTUxODU3MzE5NjIwMTgwMjE0XzE1MTg1NzMxOTYyMDE4MDIxNF9heg==&hUser=aubosque&hUserRefId=114&hCompanyID=2&hBranchID=1&hsysgrp=&hucode=COMPEMP&hUserGroup=COMPEMP&ccode=PCC&hEmpRefId=114&h=Secret&loginT=2018-02-14%2009:53:16%20AM&file=scrn201File&paramTitle=201%20File&hTable=Employees&auth=5d0157bdc292ca447815a00fd42ce62af56f89a7
02142018 10:21:53 AM->URL:/HRISDEV/hris/min/e2e/resources/views/pages/GlobalCaller.e2e.php?hSess=MTUxODU3MzE5NjIwMTgwMjE0XzE1MTg1NzMxOTYyMDE4MDIxNF9heg==&hUser=aubosque&hUserRefId=114&hCompanyID=2&hBranchID=1&hsysgrp=&hucode=COMPEMP&hUserGroup=COMPEMP&ccode=PCC&hEmpRefId=114&h=Secret&loginT=2018-02-14%2009:53:16%20AM&file=scrn201File&paramTitle=201%20File&hTable=Employees&auth=5d0157bdc292ca447815a00fd42ce62af56f89a7
02142018 10:37:05 AM->URL:/HRISDEV/hris/min/e2e/resources/views/pages/GlobalCaller.e2e.php?hSess=MTUxODU3MzE5NjIwMTgwMjE0XzE1MTg1NzMxOTYyMDE4MDIxNF9heg==&hUser=aubosque&hUserRefId=114&hCompanyID=2&hBranchID=1&hsysgrp=&hucode=COMPEMP&hUserGroup=COMPEMP&ccode=PCC&hEmpRefId=114&h=Secret&loginT=2018-02-14%2009:53:16%20AM&file=scrn201File&paramTitle=201%20File&hTable=employees&auth=f8d018cac54840dcacedfda769c2224fc1e7ddd6
02142018 10:46:22 AM->URL:/HRISDEV/hris/min/e2e/resources/views/pages/GlobalCaller.e2e.php?hSess=MTUxODU3MzE5NjIwMTgwMjE0XzE1MTg1NzMxOTYyMDE4MDIxNF9heg==&hUser=aubosque&hUserRefId=114&hCompanyID=2&hBranchID=1&hsysgrp=&hucode=COMPEMP&hUserGroup=COMPEMP&ccode=PCC&hEmpRefId=114&h=Secret&loginT=2018-02-14%2009:53:16%20AM&file=scrn201File&paramTitle=201%20File&hTable=employees&auth=386d484108b63305dcce70ca77c4d49cf4f51fa5
02142018 10:48:28 AM->URL:/HRISDEV/hris/min/e2e/resources/views/pages/GlobalCaller.e2e.php?hSess=MTUxODU3MzE5NjIwMTgwMjE0XzE1MTg1NzMxOTYyMDE4MDIxNF9heg==&hUser=aubosque&hUserRefId=114&hCompanyID=2&hBranchID=1&hsysgrp=&hucode=COMPEMP&hUserGroup=COMPEMP&ccode=PCC&hEmpRefId=114&h=Secret&loginT=2018-02-14%2009:53:16%20AM&file=scrn201File&paramTitle=201%20File&hTable=employees&auth=386d484108b63305dcce70ca77c4d49cf4f51fa5
02142018 11:07:57 AM->URL:/HRISDEV/hris/min/e2e/resources/views/pages/GlobalCaller.e2e.php?hSess=MTUxODU3MzE5NjIwMTgwMjE0XzE1MTg1NzMxOTYyMDE4MDIxNF9heg==&hUser=aubosque&hUserRefId=114&hCompanyID=2&hBranchID=1&hsysgrp=&hucode=COMPEMP&hUserGroup=COMPEMP&ccode=PCC&hEmpRefId=114&h=Secret&loginT=2018-02-14%2009:53:16%20AM&file=scrn201File&paramTitle=201%20File&hTable=employees&auth=f1a86ca4d2ec42bc11cab1978bbf75e1286885d5
02142018 11:08:35 AM->URL:/HRISDEV/hris/min/e2e/resources/views/pages/GlobalCaller.e2e.php?hSess=MTUxODU3MzE5NjIwMTgwMjE0XzE1MTg1NzMxOTYyMDE4MDIxNF9heg==&hUser=aubosque&hUserRefId=114&hCompanyID=2&hBranchID=1&hsysgrp=&hucode=COMPEMP&hUserGroup=COMPEMP&ccode=PCC&hEmpRefId=114&h=Secret&loginT=2018-02-14%2009:53:16%20AM&file=scrn201File&paramTitle=201%20File&hTable=employees&auth=07a641fb05b14e48f76ebed046d5cd5ffe00ac27
02142018 11:09:08 AM->URL:/HRISDEV/hris/min/e2e/resources/views/pages/GlobalCaller.e2e.php?hSess=MTUxODU3MzE5NjIwMTgwMjE0XzE1MTg1NzMxOTYyMDE4MDIxNF9heg==&hUser=aubosque&hUserRefId=114&hCompanyID=2&hBranchID=1&hsysgrp=&hucode=COMPEMP&hUserGroup=COMPEMP&ccode=PCC&hEmpRefId=114&h=Secret&loginT=2018-02-14%2009:53:16%20AM&file=scrn201File&paramTitle=201%20File&hTable=employees&auth=a4544ea261f46547c8ef07b5f8a992360b309fd9
02142018 11:09:24 AM->URL:/HRISDEV/hris/min/e2e/resources/views/pages/GlobalCaller.e2e.php?hSess=MTUxODU3MzE5NjIwMTgwMjE0XzE1MTg1NzMxOTYyMDE4MDIxNF9heg==&hUser=aubosque&hUserRefId=114&hCompanyID=2&hBranchID=1&hsysgrp=&hucode=COMPEMP&hUserGroup=COMPEMP&ccode=PCC&hEmpRefId=114&h=Secret&loginT=2018-02-14%2009:53:16%20AM&file=scrn201File&paramTitle=201%20File&hTable=employees&auth=e526d5a836b5e982c4ce27d730fc8413eeb419bc
02142018 11:10:28 AM->URL:/HRISDEV/hris/min/e2e/resources/views/pages/GlobalCaller.e2e.php?hSess=MTUxODU3MzE5NjIwMTgwMjE0XzE1MTg1NzMxOTYyMDE4MDIxNF9heg==&hUser=aubosque&hUserRefId=114&hCompanyID=2&hBranchID=1&hsysgrp=&hucode=COMPEMP&hUserGroup=COMPEMP&ccode=PCC&hEmpRefId=114&h=Secret&loginT=2018-02-14%2009:53:16%20AM&file=scrn201File&paramTitle=201%20File&hTable=employees&auth=96c3dc7d3781aa7fc723f0211fa2a6a510fab438
02142018 11:11:14 AM->URL:/HRISDEV/hris/min/e2e/resources/views/pages/GlobalCaller.e2e.php?hSess=MTUxODU3MzE5NjIwMTgwMjE0XzE1MTg1NzMxOTYyMDE4MDIxNF9heg==&hUser=aubosque&hUserRefId=114&hCompanyID=2&hBranchID=1&hsysgrp=&hucode=COMPEMP&hUserGroup=COMPEMP&ccode=PCC&hEmpRefId=114&h=Secret&loginT=2018-02-14%2009:53:16%20AM&file=scrn201File&paramTitle=201%20File&hTable=employees&auth=db002df2fa1941c9cfe0a5a6208f7d117b6e0c48
02142018 11:40:27 AM->URL:/HRISDEV/hris/min/e2e/resources/views/pages/GlobalCaller.e2e.php?hSess=MTUxODU3MzE5NjIwMTgwMjE0XzE1MTg1NzMxOTYyMDE4MDIxNF9heg==&hUser=aubosque&hUserRefId=114&hCompanyID=2&hBranchID=1&hsysgrp=&hucode=COMPEMP&hUserGroup=COMPEMP&ccode=PCC&hEmpRefId=114&h=Secret&loginT=2018-02-14%2009:53:16%20AM&file=scrn201File&paramTitle=201%20File&hTable=employees&auth=fbe033e76656a225bea1679af8fc33cf9a940944
02142018 11:40:37 AM->URL:/HRISDEV/hris/min/e2e/resources/views/pages/GlobalCaller.e2e.php?hSess=MTUxODU3MzE5NjIwMTgwMjE0XzE1MTg1NzMxOTYyMDE4MDIxNF9heg==&hUser=aubosque&hUserRefId=114&hCompanyID=2&hBranchID=1&hsysgrp=&hucode=COMPEMP&hUserGroup=COMPEMP&ccode=PCC&hEmpRefId=114&h=Secret&loginT=2018-02-14%2009:53:16%20AM&file=scrn201File&paramTitle=201%20File&hTable=employees&auth=fbe033e76656a225bea1679af8fc33cf9a940944
02142018 11:41:08 AM->URL:/HRISDEV/hris/min/e2e/resources/views/pages/GlobalCaller.e2e.php?hSess=MTUxODU3MzE5NjIwMTgwMjE0XzE1MTg1NzMxOTYyMDE4MDIxNF9heg==&hUser=aubosque&hUserRefId=114&hCompanyID=2&hBranchID=1&hsysgrp=&hucode=COMPEMP&hUserGroup=COMPEMP&ccode=PCC&hEmpRefId=114&h=Secret&loginT=2018-02-14%2009:53:16%20AM&file=scrn201File&paramTitle=201%20File&hTable=employees&auth=8759f8184f8ebd9e078f55a894264c42610b8127
02142018 01:24:13 PM->URL:/HRISDEV/hris/min/e2e/resources/views/pages/GlobalCaller.e2e.php?hSess=MTUxODU3MzE5NjIwMTgwMjE0XzE1MTg1NzMxOTYyMDE4MDIxNF9heg==&hUser=aubosque&hUserRefId=114&hCompanyID=2&hBranchID=1&hsysgrp=&hucode=COMPEMP&hUserGroup=COMPEMP&ccode=PCC&hEmpRefId=114&h=Secret&loginT=2018-02-14%2009:53:16%20AM&file=scrn201File&paramTitle=201%20File&hTable=employees&auth=76982fda832ae2afc741cbc9f70e3a98f6eeaf58
02142018 01:24:57 PM->URL:/HRISDEV/hris/min/e2e/resources/views/pages/GlobalCaller.e2e.php?hSess=MTUxODU3MzE5NjIwMTgwMjE0XzE1MTg1NzMxOTYyMDE4MDIxNF9heg==&hUser=aubosque&hUserRefId=114&hCompanyID=2&hBranchID=1&hsysgrp=&hucode=COMPEMP&hUserGroup=COMPEMP&ccode=PCC&hEmpRefId=114&h=Secret&loginT=2018-02-14%2009:53:16%20AM&file=scrn201File&paramTitle=201%20File&hTable=employees&auth=76982fda832ae2afc741cbc9f70e3a98f6eeaf58
02142018 01:40:16 PM->URL:/HRISDEV/hris/min/e2e/resources/views/pages/GlobalCaller.e2e.php?hSess=MTUxODU3MzE5NjIwMTgwMjE0XzE1MTg1NzMxOTYyMDE4MDIxNF9heg==&hUser=aubosque&hUserRefId=114&hCompanyID=2&hBranchID=1&hsysgrp=&hucode=COMPEMP&hUserGroup=COMPEMP&ccode=PCC&hEmpRefId=114&h=Secret&loginT=2018-02-14%2009:53:16%20AM&file=scrn201File&paramTitle=201%20File&hTable=employees&auth=54550cf031f18d22375851a0bae69389bec1be85
02142018 01:40:40 PM->URL:/HRISDEV/hris/min/e2e/resources/views/pages/GlobalCaller.e2e.php?hSess=MTUxODU3MzE5NjIwMTgwMjE0XzE1MTg1NzMxOTYyMDE4MDIxNF9heg==&hUser=aubosque&hUserRefId=114&hCompanyID=2&hBranchID=1&hsysgrp=&hucode=COMPEMP&hUserGroup=COMPEMP&ccode=PCC&hEmpRefId=114&h=Secret&loginT=2018-02-14%2009:53:16%20AM&file=scrn201File&paramTitle=201%20File&hTable=employees&auth=85c9eef1e6746f39450927e0f1770d4ce24b803b
02142018 01:41:08 PM->URL:/HRISDEV/hris/min/e2e/resources/views/pages/GlobalCaller.e2e.php?hSess=MTUxODU3MzE5NjIwMTgwMjE0XzE1MTg1NzMxOTYyMDE4MDIxNF9heg==&hUser=aubosque&hUserRefId=114&hCompanyID=2&hBranchID=1&hsysgrp=&hucode=COMPEMP&hUserGroup=COMPEMP&ccode=PCC&hEmpRefId=114&h=Secret&loginT=2018-02-14%2009:53:16%20AM&file=scrn201File&paramTitle=201%20File&hTable=employees&auth=b0a78d160c6d048e593cc8205cae85d800362342
02142018 01:45:01 PM->URL:/HRISDEV/hris/min/e2e/resources/views/pages/GlobalCaller.e2e.php?hSess=MTUxODU3MzE5NjIwMTgwMjE0XzE1MTg1NzMxOTYyMDE4MDIxNF9heg==&hUser=aubosque&hUserRefId=114&hCompanyID=2&hBranchID=1&hsysgrp=&hucode=COMPEMP&hUserGroup=COMPEMP&ccode=PCC&hEmpRefId=114&h=Secret&loginT=2018-02-14%2009:53:16%20AM&file=scrn201File&paramTitle=201%20File&hTable=employees&auth=b0a78d160c6d048e593cc8205cae85d800362342
02142018 02:35:55 PM->URL:/HRISDEV/hris/min/e2e/resources/views/pages/GlobalCaller.e2e.php?hSess=MTUxODU3MzE5NjIwMTgwMjE0XzE1MTg1NzMxOTYyMDE4MDIxNF9heg==&hUser=aubosque&hUserRefId=114&hCompanyID=2&hBranchID=1&hsysgrp=&hucode=COMPEMP&hUserGroup=COMPEMP&ccode=PCC&hEmpRefId=114&h=Secret&loginT=2018-02-14%2009:53:16%20AM&file=scrn201File&paramTitle=201%20File&hTable=employees&auth=210fc1a3bc60496e42ef1d5e43828d88f2983f93
02142018 02:36:14 PM->URL:/HRISDEV/hris/min/e2e/resources/views/pages/GlobalCaller.e2e.php?hSess=MTUxODU3MzE5NjIwMTgwMjE0XzE1MTg1NzMxOTYyMDE4MDIxNF9heg==&hUser=aubosque&hUserRefId=114&hCompanyID=2&hBranchID=1&hsysgrp=&hucode=COMPEMP&hUserGroup=COMPEMP&ccode=PCC&hEmpRefId=114&h=Secret&loginT=2018-02-14%2009:53:16%20AM&file=scrn201File&paramTitle=201%20File&hTable=employees&auth=7a04ff0dc8224553861086e25d9863432b18f488
02142018 02:43:56 PM->URL:/HRISDEV/hris/min/e2e/resources/views/pages/GlobalCaller.e2e.php?hSess=MTUxODU3MzE5NjIwMTgwMjE0XzE1MTg1NzMxOTYyMDE4MDIxNF9heg==&hUser=aubosque&hUserRefId=114&hCompanyID=2&hBranchID=1&hsysgrp=&hucode=COMPEMP&hUserGroup=COMPEMP&ccode=PCC&hEmpRefId=114&h=Secret&loginT=2018-02-14%2009:53:16%20AM&file=scrn201File&paramTitle=201%20File&hTable=employees&auth=1c0b9733284c1177c1cea27375078f9a0792736d
02142018 03:10:38 PM->URL:/HRISDEV/hris/min/e2e/resources/views/pages/GlobalCaller.e2e.php?hSess=MTUxODU3MzE5NjIwMTgwMjE0XzE1MTg1NzMxOTYyMDE4MDIxNF9heg==&hUser=aubosque&hUserRefId=114&hCompanyID=2&hBranchID=1&hsysgrp=&hucode=COMPEMP&hUserGroup=COMPEMP&ccode=PCC&hEmpRefId=114&h=Secret&loginT=2018-02-14%2009:53:16%20AM&file=scrn201File&paramTitle=201%20File&hTable=employees&auth=8c2e45c0475325057c9cf8d71bd8b34cb4038a6f
02142018 03:25:03 PM->URL:/HRISDEV/hris/min/e2e/resources/views/pages/GlobalCaller.e2e.php?hSess=MTUxODU3MzE5NjIwMTgwMjE0XzE1MTg1NzMxOTYyMDE4MDIxNF9heg==&hUser=aubosque&hUserRefId=114&hCompanyID=2&hBranchID=1&hsysgrp=&hucode=COMPEMP&hUserGroup=COMPEMP&ccode=PCC&hEmpRefId=114&h=Secret&loginT=2018-02-14%2009:53:16%20AM&file=scrn201File&paramTitle=201%20File&hTable=employees&auth=8c2e45c0475325057c9cf8d71bd8b34cb4038a6f
02142018 03:42:23 PM->URL:/HRISDEV/hris/min/e2e/resources/views/pages/GlobalCaller.e2e.php?hSess=MTUxODU3MzE5NjIwMTgwMjE0XzE1MTg1NzMxOTYyMDE4MDIxNF9heg==&hUser=aubosque&hUserRefId=114&hCompanyID=2&hBranchID=1&hsysgrp=&hucode=COMPEMP&hUserGroup=COMPEMP&ccode=PCC&hEmpRefId=114&h=Secret&loginT=2018-02-14%2009:53:16%20AM&file=scrn201File&paramTitle=201%20File&hTable=employees&auth=8c2e45c0475325057c9cf8d71bd8b34cb4038a6f
02142018 03:42:29 PM->URL:/HRISDEV/hris/min/e2e/resources/views/pages/GlobalCaller.e2e.php?hSess=MTUxODU3MzE5NjIwMTgwMjE0XzE1MTg1NzMxOTYyMDE4MDIxNF9heg==&hUser=aubosque&hUserRefId=114&hCompanyID=2&hBranchID=1&hsysgrp=&hucode=COMPEMP&hUserGroup=COMPEMP&ccode=PCC&hEmpRefId=114&h=Secret&loginT=2018-02-14%2009:53:16%20AM&file=scrn201File&paramTitle=201%20File&hTable=employees&auth=8c2e45c0475325057c9cf8d71bd8b34cb4038a6f
02142018 03:43:13 PM->URL:/HRISDEV/hris/min/e2e/resources/views/pages/GlobalCaller.e2e.php?hSess=MTUxODU3MzE5NjIwMTgwMjE0XzE1MTg1NzMxOTYyMDE4MDIxNF9heg==&hUser=aubosque&hUserRefId=114&hCompanyID=2&hBranchID=1&hsysgrp=&hucode=COMPEMP&hUserGroup=COMPEMP&ccode=PCC&hEmpRefId=114&h=Secret&loginT=2018-02-14%2009:53:16%20AM&file=scrn201File&paramTitle=201%20File&hTable=employees&auth=1c862b316cebf8fa3471669dcb8e53e2803dd31b
02142018 03:43:50 PM->URL:/HRISDEV/hris/min/e2e/resources/views/pages/GlobalCaller.e2e.php?hSess=MTUxODU3MzE5NjIwMTgwMjE0XzE1MTg1NzMxOTYyMDE4MDIxNF9heg==&hUser=aubosque&hUserRefId=114&hCompanyID=2&hBranchID=1&hsysgrp=&hucode=COMPEMP&hUserGroup=COMPEMP&ccode=PCC&hEmpRefId=114&h=Secret&loginT=2018-02-14%2009:53:16%20AM&file=scrn201File&paramTitle=201%20File&hTable=employees&auth=1c862b316cebf8fa3471669dcb8e53e2803dd31b
02142018 03:48:26 PM->URL:/HRISDEV/hris/min/e2e/resources/views/pages/GlobalCaller.e2e.php?hSess=MTUxODU3MzE5NjIwMTgwMjE0XzE1MTg1NzMxOTYyMDE4MDIxNF9heg==&hUser=aubosque&hUserRefId=114&hCompanyID=2&hBranchID=1&hsysgrp=&hucode=COMPEMP&hUserGroup=COMPEMP&ccode=PCC&hEmpRefId=114&h=Secret&loginT=2018-02-14%2009:53:16%20AM&file=scrn201File&paramTitle=201%20File&hTable=employees&auth=fd96710a02b491c983ea9bb5249b47588e2f3a8e
02142018 04:17:19 PM->URL:/HRISDEV/hris/min/e2e/resources/views/pages/GlobalCaller.e2e.php?hSess=MTUxODU3MzE5NjIwMTgwMjE0XzE1MTg1NzMxOTYyMDE4MDIxNF9heg==&hUser=aubosque&hUserRefId=114&hCompanyID=2&hBranchID=1&hsysgrp=&hucode=COMPEMP&hUserGroup=COMPEMP&ccode=PCC&hEmpRefId=114&h=Secret&loginT=2018-02-14%2009:53:16%20AM&file=scrn201File&paramTitle=201%20File&hTable=employees&auth=7553a773a4cb8bf9a361fce77432511034892a73
02142018 04:28:27 PM->URL:/HRISDEV/hris/min/e2e/resources/views/pages/GlobalCaller.e2e.php?hSess=MTUxODU5NjkwNzIwMTgwMjE0XzE1MTg1OTY5MDcyMDE4MDIxNF9heg==&hUser=aubosque&hUserRefId=114&hCompanyID=2&hBranchID=1&hsysgrp=&hucode=COMPEMP&hUserGroup=COMPEMP&ccode=PCC&hEmpRefId=114&h=Secret&loginT=2018-02-14%2004:28:27%20PM&file=scrnWelcome&auth=init
02142018 04:28:30 PM->URL:/HRISDEV/hris/min/e2e/resources/views/pages/GlobalCaller.e2e.php?hSess=MTUxODU5NjkwNzIwMTgwMjE0XzE1MTg1OTY5MDcyMDE4MDIxNF9heg==&hUser=aubosque&hUserRefId=114&hCompanyID=2&hBranchID=1&hsysgrp=&hucode=COMPEMP&hUserGroup=COMPEMP&ccode=PCC&hEmpRefId=114&h=Secret&loginT=2018-02-14%2004:28:27%20PM&file=scrn201File&paramTitle=201%20File&hTable=Employees&auth=9ce639240582b119a269becdb442ddef12ee762e
02142018 04:28:55 PM->URL:/HRISDEV/hris/min/e2e/resources/views/pages/GlobalCaller.e2e.php?hSess=MTUxODU5NjkwNzIwMTgwMjE0XzE1MTg1OTY5MDcyMDE4MDIxNF9heg==&hUser=aubosque&hUserRefId=114&hCompanyID=2&hBranchID=1&hsysgrp=&hucode=COMPEMP&hUserGroup=COMPEMP&ccode=PCC&hEmpRefId=114&h=Secret&loginT=2018-02-14%2004:28:27%20PM&file=scrn201File&paramTitle=201%20File&hTable=employees&hGridTblHdr=Last%20Name|First%20Name|Contact%20No|Birth%20Date|Civil%20Status&hGridTblFld=LastName|FirstName|ContactNo|BirthDate|CivilStatus&auth=b3230d9430260fe1e9874f4748fa240abf53be66
02142018 04:28:58 PM->URL:/HRISDEV/hris/min/e2e/resources/views/pages/GlobalCaller.e2e.php?hSess=MTUxODU5NjkwNzIwMTgwMjE0XzE1MTg1OTY5MDcyMDE4MDIxNF9heg==&hUser=aubosque&hUserRefId=114&hCompanyID=2&hBranchID=1&hsysgrp=&hucode=COMPEMP&hUserGroup=COMPEMP&ccode=PCC&hEmpRefId=114&h=Secret&loginT=2018-02-14%2004:28:27%20PM&file=scrnWelcome&paramTitle=&auth=27b77341c967ed1dca5888600f2b2121fddc2e02
02142018 04:29:04 PM->URL:/HRISDEV/hris/min/e2e/resources/views/pages/GlobalCaller.e2e.php?hSess=MTUxODU5NjkwNzIwMTgwMjE0XzE1MTg1OTY5MDcyMDE4MDIxNF9heg==&hUser=aubosque&hUserRefId=114&hCompanyID=2&hBranchID=1&hsysgrp=&hucode=COMPEMP&hUserGroup=COMPEMP&ccode=PCC&hEmpRefId=114&h=Secret&loginT=2018-02-14%2004:28:27%20PM&file=scrn201File&paramTitle=201%20File&hTable=Employees&auth=092ec09d83286b62f0c082d06db1eab991177de1
02142018 04:55:54 PM->URL:/HRISDEV/hris/min/e2e/resources/views/pages/GlobalCaller.e2e.php?hSess=MTUxODU5NjkwNzIwMTgwMjE0XzE1MTg1OTY5MDcyMDE4MDIxNF9heg==&hUser=aubosque&hUserRefId=114&hCompanyID=2&hBranchID=1&hsysgrp=&hucode=COMPEMP&hUserGroup=COMPEMP&ccode=PCC&hEmpRefId=114&h=Secret&loginT=2018-02-14%2004:28:27%20PM&file=scrn201File&paramTitle=201%20File&hTable=employees&auth=46c673404aec7b0b0c5730476e00d8e5f58a00f8
02142018 06:37:31 PM->URL:/HRISDEV/hris/min/e2e/resources/views/pages/GlobalCaller.e2e.php?hSess=MTUxODU3MzE5NjIwMTgwMjE0XzE1MTg1NzMxOTYyMDE4MDIxNF9heg==&hUser=aubosque&hUserRefId=114&hCompanyID=2&hBranchID=1&hsysgrp=&hucode=COMPEMP&hUserGroup=COMPEMP&ccode=PCC&hEmpRefId=114&h=Secret&loginT=2018-02-14%2009:53:16%20AM&file=scrn201File&paramTitle=201%20File&hTable=employees&auth=7553a773a4cb8bf9a361fce77432511034892a73
02142018 06:40:39 PM->URL:/HRISDEV/hris/min/e2e/resources/views/pages/GlobalCaller.e2e.php?hSess=MTUxODU3MzE5NjIwMTgwMjE0XzE1MTg1NzMxOTYyMDE4MDIxNF9heg==&hUser=aubosque&hUserRefId=114&hCompanyID=2&hBranchID=1&hsysgrp=&hucode=COMPEMP&hUserGroup=COMPEMP&ccode=PCC&hEmpRefId=114&h=Secret&loginT=2018-02-14%2009:53:16%20AM&file=scrn201File&paramTitle=201%20File&hTable=employees&auth=8b3fd6b264f8c63dc583a65381e40dbb49dd5442
