02202018 01:42:09 PM->URL:/HRISDEV/hris/min/e2e/resources/views/pages/GlobalCaller.e2e.php?hSess=MTUxOTEwNTMyODIwMTgwMjIwXzE1MTkxMDUzMjgyMDE4MDIyMF9heg==&hUser=kvcastillo&hUserRefId=119&hCompanyID=2&hBranchID=1&hsysgrp=&hucode=COMPEMP&hUserGroup=COMPEMP&ccode=PCC&hEmpRefId=119&h=Secret&loginT=2018-02-20%2001:42:08%20PM&file=scrnWelcome&auth=init
02202018 02:04:25 PM->URL:/HRISDEV/hris/min/e2e/resources/views/pages/GlobalCaller.e2e.php?hSess=MTUxOTEwNjY2NDIwMTgwMjIwXzE1MTkxMDY2NjQyMDE4MDIyMF9heg==&hUser=kvcastillo&hUserRefId=119&hCompanyID=2&hBranchID=1&hsysgrp=&hucode=COMPEMP&hUserGroup=COMPEMP&ccode=PCC&hEmpRefId=119&h=Secret&loginT=2018-02-20%2002:04:24%20PM&file=scrnWelcome&auth=init
02202018 02:04:30 PM->URL:/HRISDEV/hris/min/e2e/resources/views/pages/GlobalCaller.e2e.php?hSess=MTUxOTEwNjY2NDIwMTgwMjIwXzE1MTkxMDY2NjQyMDE4MDIyMF9heg==&hUser=kvcastillo&hUserRefId=119&hCompanyID=2&hBranchID=1&hsysgrp=&hucode=COMPEMP&hUserGroup=COMPEMP&ccode=PCC&hEmpRefId=119&h=Secret&loginT=2018-02-20%2002:04:24%20PM&file=scrn201File&paramTitle=201%20File&hTable=Employees&auth=b2ac9c0e634eb90a7b6810ca8ade298ca76f35a5
02202018 02:30:04 PM->URL:/HRISDEV/hris/min/e2e/resources/views/pages/GlobalCaller.e2e.php?hSess=MTUxOTEwNjY2NDIwMTgwMjIwXzE1MTkxMDY2NjQyMDE4MDIyMF9heg==&hUser=kvcastillo&hUserRefId=119&hCompanyID=2&hBranchID=1&hsysgrp=&hucode=COMPEMP&hUserGroup=COMPEMP&ccode=PCC&hEmpRefId=119&h=Secret&loginT=2018-02-20%2002:04:24%20PM&file=scrnLogOut&id=mLogOut&auth=04b9b53954a9cb16933de9d9ecf678bb7382791e
