01162018 08:30:36 AM--fhabellajr     --hSess=MTUxNjA2MjYzNjIwMTgwMTE2XzE1MTYwNjI2MzYyMDE4MDExNl9heg==&hUser=fhabellajr&hUserRefId=116&hCompanyID=2&hBranchID=1&hsysgrp=&hucode=COMPEMP&hUserGroup=COMPEMP&ccode=PCC&hEmpRefId=116&h=Secret&loginT=2018-01-16 08:30:36 AM
01162018 09:28:17 AM--mmmalabag      --hSess=MTUxNjA2NjA5NzIwMTgwMTE2XzE1MTYwNjYwOTcyMDE4MDExNl9heg==&hUser=mmmalabag&hUserRefId=123&hCompanyID=2&hBranchID=1&hsysgrp=&hucode=COMPEMP&hUserGroup=COMPEMP&ccode=PCC&hEmpRefId=123&h=Secret&loginT=2018-01-16 09:28:17 AM
01162018 09:40:37 AM--rfallera       --hSess=MTUxNjA2NjgzNzIwMTgwMTE2XzE1MTYwNjY4MzcyMDE4MDExNl9heg==&hUser=rfallera&hUserRefId=129&hCompanyID=2&hBranchID=1&hsysgrp=&hucode=COMPEMP&hUserGroup=COMPEMP&ccode=PCC&hEmpRefId=129&h=Secret&loginT=2018-01-16 09:40:37 AM
