{
   "File":"scrnEmpMovement",
	"Title":"Employees Movement Record(s)",
	"Description":"",
	"Action":[true,true,true,false],
	"Table":"employeesmovement",
   "trnFile":"trnEmpMovement.e2e.php",
   "Fields":{
		"dbField":["EmployeesRefId", "ApptStatusRefId", "AgencyRefId", "PositionItemRefId", "PositionRefId", "DepartmentRefId", "OfficeRefId", "DivisionRefId", "EmpStatusRefId", "SalaryGradeRefId", "DesignationRefId", "StepIncrementRefId", "SalaryAmount", "isGovtService", "EffectivityDate", "ExpiryDate", "TrnDate", "TrnTime", "IncumbentEmployeesRefId", "IncumbentSeparationReason", "Remarks"],
      "dbType":["sint", "sint", "sint", "sint", "sint", "sint", "sint", "sint", "sint", "sint", "sint", "sint", "deci", "sint", "date", "date", "date", "sint", "sint", "char", "char"],
      "gridHeader":["Employees", "Appt. Status", "Agency", "Position Item", "Position", "Department", "Office", "Division", "Emp. Status", "Salary Grade", "Designation", "Step Increment", "Salary Amount", "Govt. Service?", "Effectivity Date", "Expiry Date", "Trn. Date", "Trn. Time", "Incumbent Employees", "Incumbent Separation Reason", "Remarks"],
      "inDataEntry":[true, false, true, true, true, true, true, true, true, true, true, false, true, true, true, true, false, false, true, true, true],
      "inGridTable":[false, false, false, true, true, true, true, true, true, false, false, false, false, true, false, false, false, false, false, false, false],
      "objType":["text", "drop", "drop", "drop", "drop", "drop", "drop", "drop", "drop", "drop", "drop", "drop", "text", "drop", "text", "text", "text", "text", "text", "textarea", "text"]
	}
}