Bachelor of Arts in History ,(AB History)
Bachelor of Arts in Philosophy ,(AB Philosophy)
Bachelor of Fine Arts Major in Industrial Design ,
Bachelor of Fine Arts Major in Painting ,
Bachelor of Fine Arts Major in Sculpture,
Bachelor of Fine Arts Major in Visual Communication,
Bachelor of Arts in Economics,(AB Economics)
Bachelor of Science in Economics ,(BS Economics)
Bachelor of Arts in Psychology ,(AB Psychology)
Bachelor of Science in Psychology ,(BS Psychology)
Bachelor of Arts in English, (AB English)
Bachelor of Arts in Linguistics ,(AB Linguistics)
Bachelor of Arts in Literature ,(AB Literature)
Bachelor of Arts in Anthropology ,(AB Anthropology)
Bachelor of Arts in Sociology ,(AB Sociology)
Bachelor of Arts in Filipino ,(AB Filipino)
Bachelor of Science in Forensic Science, (BSFS)
Bachelor of Science in Environmental Science ,(BSES)
Bachelor of Science in Forestry ,(BS Forestry)
Bachelor of Science in Fisheries ,(BSFi)
Bachelor of Science in Geology ,(BS Geology)
Bachelor of Science in Biology ,(BS Biology)
Bachelor of Science in Molecular Biology ,(BS Molecular Biology)
Bachelor of Science in Physics ,(BS Physics)
Bachelor of Science in Applied Physics, (BS Applied Physics)
Bachelor of Science in Chemistry ,(BS Chemistry)
Bachelor of Science in Computer Science, (BSCS)
Bachelor of Science in Information Technology ,(BSIT)
Bachelor of Science in Information Systems ,(BSIS)
Bachelor of Science in Mathematics ,(BS Mathematics)
Bachelor of Science in Applied Mathematics ,(BS Applied Math)
Bachelor of Science in Statistics ,(BS Stat)
Bachelor of Science in Agriculture,
Bachelor of Science in Agribusiness ,(BS Agribusiness)
Bachelor of Science in Agroforestry,(BS Agroforestry)
Bachelor of Science in Architecture,(BS Architecture)
Bachelor in Landscape Architecture,(BLA)
Bachelor of Science in Interior Design ,(BS Interior Design)
Bachelor of Science in Accountancy,(BSA)
Bachelor of Science in Accounting Technology,(BSAcT)
Bachelor of Science in Business Administration,
Bachelor of Science in Business Administration Major in Business Economics ,
Bachelor of Science in Business Administration Major in Financial Management ,(BSBA major in FM)
Bachelor of Science in Business Administration Major in Human Resource Development ,(BSBA major in HRDM)
Bachelor of Science in Business Administration Major in Marketing Management ,(BSBA major in MM)
Bachelor of Science in Business Administration Major in Operations Management ,(BSBA major in OM)
Bachelor of Science in Bachelor of Science in Hotel and Restaurant Management ,(BS HRM)
Bachelor of Science in Entrepreneurship,(BS Entrep)
Bachelor of Science in Office Administration ,
Bachelor of Science in Real Estate Management,(BS REM)
Bachelor of Science in Tourism Management ,(BSTM)
Bachelor of Science in Medical Technology ,(BS Med Tech)
Bachelor of Science in Nursing ,(BSN)
Bachelor of Science in Pharmacy ,(BS Pharmacy)
Bachelor of Science in Physical Therapy,(BSPT)
Bachelor of Science in Radiologic Technology,(BS Rad Tech)
Bachelor of Science in Respiratory Therapy ,(BSRT)
Bachelor of Science in Speech-Language Pathology,
Bachelor of Science in Sports Science,
Bachelor in Secondary Education ,(BSED)
Bachelor in Elementary Education ,(BEED)
Bachelor in Secondary Education Major in Technology and Livelihood Education,(BSED)
Bachelor in Secondary Education Major in Biological Sciences,(BSED)
Bachelor in Secondary Education Major in English,(BSED)
Bachelor in Secondary Education Major in Filipino,(BSED)
Bachelor in Secondary Education Major in Mathematics,(BSED)
Bachelor in Secondary Education Major in Islamic Studies,(BSED)
"Bachelor in Secondary Education Major in Music, Arts, Physical and Health Education", (BSED)
Bachelor in Secondary Education Major in Physical Sciences, (BSED)
Bachelor in Secondary Education Major in Social Studies ,(BSED)
Bachelor in Elementary Education Major in Special Education ,(BEED)
Bachelor of Library and Information Science in the Philippines ,(BLIS)
Bachelor of Physical Education,(BPE)
Bachelor of Science in Aeronautical Engineering,(BS AeroE)
Bachelor of Science in Ceramic Engineering ,(BSCerE)
Bachelor of Science in Chemical Engineering ,(BSChE)
Bachelor of Science in Civil Engineering ,(BSCE)
Bachelor of Science in Computer Engineering ,(BSCpE)
Bachelor of Science in Electrical Engineering ,(BSEE)
Bachelor of Science in Electronics and Communications Engineering ,(BSECE)
Bachelor of Science in Geodetic Engineering ,(BSGE)
Bachelor of Science in Geological Engineering, (BSGeoE)
Bachelor of Science in Industrial Engineering, (BSIE)
Bachelor of Science in Marine Engineering in ,(BSMarE)
Bachelor of Science in Materials Engineering ,(BSMatE)
Bachelor of Science in Mechanical Engineering ,(BSME)
Bachelor of Science in Metallurgical Engineering ,(BSMetE)
Bachelor of Science in Mining Engineering ,(BSEM)
Bachelor of Science in Petroleum Engineering ,(BSPetE)
Bachelor of Science in Sanitary Engineering ,(BSSE)
Bachelor of Arts in Broadcasting ,(AB Broadcasting)
Bachelor of Arts in Communication, (AB Communication)
Bachelor of Science in in Development Communication ,(BS DevComm)
Bachelor of Arts in Journalism ,(AB Journalism)
Bachelor of Arts in Mass Communication,
Bachelor of Science in Community Development,(BS Community Development)
Bachelor of Science in Customs Administration, (BSCA)
Bachelor of Science in Foreign Service ,(BS Foreign Service)
Bachelor of Science in International Studies,(BSIS)
Bachelor of Public Administration ,(BPA)
Bachelor of Science in Public Safety ,(BSPS)
Bachelor of Science in Social Work ,(BS Social Work)
Bachelor of Science in Marine Transportation ,(BSMT)
Bachelor of Science in Food Technology ,(BS Food Tech)
